_MyPriority 40 0 BANK0 1
__end_of_CheckSSEvent 57B 0 CODE 0
_BF 4A0 0 ABS 0
RunUARTRXService@ThisEvent 4C 0 BANK0 1
__end_of_UARTRXIntResponse 135 0 CODE 0
_RC0 38 0 ABS 0
_RC3 3B 0 ABS 0
_RC4 3C 0 ABS 0
_RC5 3D 0 ABS 0
_RC6 3E 0 ABS 0
_PS0 408 0 ABS 0
_PS1 409 0 ABS 0
_PS2 40A 0 ABS 0
__S0 2008 0 ABS 0
__S1 D3 0 ABS 0
__S2 0 0 ABS 0
ES_PostToService@TheEvent 55 0 BANK0 1
__S3 0 0 ABS 0
_GIE 5F 0 ABS 0
_ES_EnQueueFIFO 2C9 0 CODE 0
_PSA 40B 0 ABS 0
_ISR 3F2 0 CODE 0
__Hintentry D 0 CODE 0
__Lintentry 4 0 CODE 0
__end_of_BitNum2SetMask 4BA 0 STRING 0
__pintentry 4 0 CODE 0
__CFG_PWRTE$ON 0 0 ABS 0
_TMR0 1 0 ABS 0
_ANS4 8F4 0 ABS 0
_ANS7 8F7 0 ABS 0
_T0IE 5D 0 ABS 0
_T0IF 5A 0 ABS 0
_RCIE 465 0 ABS 0
_PEIE 5E 0 ABS 0
_RCIF 65 0 ABS 0
_BRGH 4C2 0 ABS 0
_TXIE 464 0 ABS 0
_SYNC 4C4 0 ABS 0
_T0CS 40D 0 ABS 0
_TXIF 64 0 ABS 0
_CREN C4 0 ABS 0
_SPEN C7 0 ABS 0
_TXEN 4C5 0 ABS 0
_currentState 7B 0 COMMON 1
InitUARTRXService@ThisEvent 5C 0 BANK0 1
__size_of_ES_Sys_Timer_Init 0 0 ABS 0
PostUARTRXService@ThisEvent 5A 0 BANK0 1
_RX_getFieldDataBuffer 600 0 CODE 0
ClearReceivedDataArray@i 71 0 COMMON 1
_time 35 0 BANK0 1
ES_DeQueue@saveCrit 52 0 BANK0 1
_main 42C 0 CODE 0
CheckSSEvent@lastSS 37 0 BANK0 1
___sp 0 0 STACK 2
btemp 7E 0 ABS 0
start D 0 CODE 0
_ANS11 8FB 0 ABS 0
_BRG16 4DB 0 ABS 0
_TMR_ActiveFlags 43 0 BANK0 1
RunUARTRXService@FieldAddressMSB 56 0 BANK0 1
_ServDescList 4BE 0 STRING 0
__end_of_ES_EnQueueFIFO 322 0 CODE 0
_RCREG 1A 0 ABS 0
_SSPIE 463 0 ABS 0
_SSPIF 63 0 ABS 0
_TXREG 19 0 ABS 0
reset_vec 0 0 CODE 0
_SPBRG 99 0 ABS 0
_PORTC 7 0 ABS 0
__fptable 30 0 ENTRY 0
wtemp0 7E 0 ABS 0
__end_of_ES_PostToService 4F1 0 CODE 0
interrupt_function 4 0 CODE 0
__Hconfig 2008 0 CONFIG 0
__Lconfig 2007 0 CONFIG 0
__end_of__stringtab 49B 0 STRING 0
_responseByte 78 0 COMMON 1
__size_of_ES_InitQueue 0 0 ABS 0
_commOpen 38 0 BANK0 1
__Hram 0 0 ABS 0
__Lram 0 0 ABS 0
fpbase 35 0 ENTRY 0
_IsTimerPending 5E3 0 CODE 0
_RunSPIService 5EE 0 CODE 0
_Ready 44 0 BANK0 1
__end_of_ISR 42C 0 CODE 0
_ES_InitQueue 592 0 CODE 0
__Hfunctab 42 0 ENTRY 0
_TRISC0 438 0 ABS 0
__Lfunctab 30 0 ENTRY 0
__end_of_IsTimerPending 5EE 0 CODE 0
__size_of_RX_getFieldDataBuffer 0 0 ABS 0
__pfunctab 30 0 ENTRY 0
_TRISC3 43B 0 ABS 0
_TRISB4 434 0 ABS 0
_TRISC4 43C 0 ABS 0
_TRISC5 43D 0 ABS 0
_TRISB6 436 0 ABS 0
_TRISC6 43E 0 ABS 0
CheckUARTRXEvent@CommEvent 5B 0 BANK0 1
_TRISC7 43F 0 ABS 0
__Hcommon 0 0 ABS 0
UARTRXIntResponse@bodyByteCount 79 0 COMMON 1
__Lcommon 0 0 ABS 0
__Heeprom_data 0 0 EEDATA 3
__Leeprom_data 0 0 EEDATA 3
RunUARTRXService@ReturnEvent 53 0 BANK0 1
___int_sp 0 0 STACK 2
_checksum 7D 0 COMMON 1
_SPBRGH 9A 0 ABS 0
UARTRXIntResponse@currentByteIndex 7A 0 COMMON 1
_ANSELH 11F 0 ABS 0
_SSPBUF 13 0 ABS 0
_Queue0 BC 0 BANK1 1
_OSCCON 8F 0 ABS 0
__Habs1 0 0 ABS 0
__Labs1 0 0 ABS 0
_Queue1 B0 0 BANK1 1
__size_of_ES_EnQueueFIFO 0 0 ABS 0
_INTCON B 0 ABS 0
_SSPCON 14 0 ABS 0
__Hsfr0 0 0 ABS 0
__Lsfr0 0 0 ABS 0
__Hsfr1 0 0 ABS 0
__Lsfr1 0 0 ABS 0
__Hsfr2 0 0 ABS 0
__Lsfr2 0 0 ABS 0
__Hsfr3 0 0 ABS 0
__Lsfr3 0 0 ABS 0
__end_of_RX_getFieldDataBuffer 602 0 CODE 0
__size_of_ES_Timer_InitTimer 0 0 ABS 0
u1277jf 454 0 CODE 0
ES_GetMSBitSet@LoopCntr 4E 0 BANK0 1
___stackhi 0 0 ABS 0
_ReceivedData 20 0 BANK0 1
_FieldAddr 33 0 BANK0 1
__end_of_ES_Timer_RTI_Resp 19E 0 CODE 0
_RXFlag 3D 0 BANK0 1
init_fetch0 5A9 0 CODE 0
__end_of_ES_DeQueue 205 0 CODE 0
__Hcode 0 0 ABS 0
__Lcode 0 0 ABS 0
fptable 30 0 ENTRY 0
_Nybble2MSBitNum 49B 0 STRING 0
__size_of_ES_Initialize 0 0 ABS 0
_ES_Run 42 0 CODE 0
entry__RunSPIService 3E 0 ENTRY 0
__HcstackBANK0 0 0 ABS 0
__LcstackBANK0 0 0 ABS 0
fptotal C 0 ABS 0
?_RunSPIService 48 0 BANK0 1
__pcstackBANK0 48 0 BANK0 1
_RunUARTRXService 205 0 CODE 0
_InitSPIService 3B8 0 CODE 0
saved_w 7E 0 ABS 0
___bmul 57B 0 CODE 0
__Hinit D 0 CODE 0
__Linit D 0 CODE 0
__end_of_InitUARTRXService 54A 0 CODE 0
ES_Timer_RTI_Resp@NeedsProcessing 42 0 BANK0 1
_ES_GetMSBitSet 375 0 CODE 0
__end_of_main 465 0 CODE 0
__Htext 0 0 ABS 0
__Ltext 0 0 ABS 0
___bmul@multiplier 4B 0 BANK0 1
__end_of_ES_GetMSBitSet 3B8 0 CODE 0
end_of_initialization 2D 0 CODE 0
RunSPIService@ThisEvent 48 0 BANK0 1
__size_of_ISR 0 0 ABS 0
___bmul@multiplicand 48 0 BANK0 1
___stacklo 0 0 ABS 0
__stringtab 495 0 STRING 0
__size_of_ClearReceivedDataArray 0 0 ABS 0
__HdataBANK1 0 0 ABS 0
__LdataBANK1 0 0 ABS 0
?_RunUARTRXService 4C 0 BANK0 1
__pdataBANK1 C8 0 BANK1 1
_InitUARTRXService 52D 0 CODE 0
_PostUARTRXService 5CB 0 CODE 0
__Hstrings 0 0 ABS 0
__Lstrings 0 0 ABS 0
ES_GetMSBitSet@Val2Check 4B 0 BANK0 1
__pstrings 495 0 STRING 0
_UARTRXIntResponse C0 0 CODE 0
__size_of_ES_Run 0 0 ABS 0
main@ErrorType 66 0 BANK0 1
__end_of_ES_EventList 4C3 0 STRING 0
__Hbank0 0 0 ABS 0
__Lbank0 0 0 ABS 0
__Hbank1 0 0 ABS 0
__Lbank1 0 0 ABS 0
__size_of_SPIIntResponse 0 0 ABS 0
__Hbank2 0 0 ABS 0
__Lbank2 0 0 ABS 0
_TickCount 7C 0 COMMON 1
__Hbank3 0 0 BANK3 1
__Lbank3 0 0 BANK3 1
___latbits 1 0 ABS 0
__size_of_CheckUARTRXEvent 0 0 ABS 0
__Hpowerup 0 0 CODE 0
__end_of_CheckUARTRXEvent 50F 0 CODE 0
_SSPSTAT 94 0 ABS 0
__Lpowerup 0 0 CODE 0
ES_Timer_InitTimer@Num 4B 0 BANK0 1
_newPackageAvailable 3F 0 BANK0 1
ES_DeQueue@NumLeft 53 0 BANK0 1
ES_PostToService@WhichService 59 0 BANK0 1
ES_Timer_RTI_Resp@NewEvent 30 0 BANK0 1
__end_of_Nybble2MSBitNum 4AA 0 STRING 0
__ptext1 54A 0 CODE 0
__end_of_RunSPIService 5F8 0 CODE 0
__ptext2 42 0 CODE 0
_SPIIntResponse 322 0 CODE 0
__ptext3 205 0 CODE 0
entry__RunUARTRXService 40 0 ENTRY 0
__ptext4 465 0 CODE 0
SPIIntResponse@readByte 72 0 COMMON 1
__ptext5 5EE 0 CODE 0
__ptext6 5E3 0 CODE 0
__ptext7 135 0 CODE 0
__ptext8 5CB 0 CODE 0
__ptext9 375 0 CODE 0
__Hclrtext 0 0 ABS 0
__Lclrtext 0 0 ABS 0
RunSPIService@ReturnEvent 4B 0 BANK0 1
ES_Run@HighestPrior 64 0 BANK0 1
__size_of_IsTimerPending 0 0 ABS 0
_EventQueues 4BA 0 STRING 0
__end_of_EventQueues 4BE 0 STRING 0
ES_Timer_InitTimer@NewTime 48 0 BANK0 1
__end_of__initialization 2D 0 CODE 0
ES_EnQueueFIFO@Event2Add 4C 0 BANK0 1
InitSPIService@Priority 5A 0 BANK0 1
_ES_DeQueue 19E 0 CODE 0
__size_of_USART_Init 0 0 ABS 0
InitSPIService@ThisEvent 5C 0 BANK0 1
__Hidloc 0 0 IDLOC 0
__Lidloc 0 0 IDLOC 0
__size_of_InitSPIService 0 0 ABS 0
__Hstack 0 0 STACK 2
__Lstack 0 0 STACK 2
_hasHeartbeat 3C 0 BANK0 1
__size_of_ES_Timer_RTI_Resp 0 0 ABS 0
__size_of_ES_DeQueue 0 0 ABS 0
_FieldDataArray C8 0 BANK1 1
ES_DeQueue@pReturnEvent 4C 0 BANK0 1
?_ES_Run 60 0 BANK0 1
__Hspace_0 2008 0 ABS 0
__Lspace_0 0 0 ABS 0
ES_Initialize@i 62 0 BANK0 1
ES_InitQueue@pThisQueue 4B 0 BANK0 1
__Hspace_1 D3 0 ABS 0
__Lspace_1 0 0 ABS 0
__Hspace_2 0 0 ABS 0
__Lspace_2 0 0 ABS 0
__Hcinit 30 0 CODE 0
__Lcinit F 0 CODE 0
__CFG_FOSC$HS 0 0 ABS 0
ES_InitQueue@BlockSize 48 0 BANK0 1
__Hjmp_tab__ES_Run 0 0 ABS 0
__Ljmp_tab__ES_Run 0 0 ABS 0
__pjmp_tab__ES_Run 2 0 ENTRY 0
__Hspace_3 0 0 ABS 0
__Lspace_3 0 0 ABS 0
__size_of_UARTRXIntResponse 0 0 ABS 0
__size_of_main 0 0 ABS 0
__end_of_ES_Timer_InitTimer 495 0 CODE 0
entry__CheckUARTRXEvent 3A 0 ENTRY 0
_ES_Timer_InitTimer 465 0 CODE 0
__end_of_SPIIntResponse 375 0 CODE 0
__size_of_ES_PostToService 0 0 ABS 0
ES_GetMSBitSet@ReturnVal 4C 0 BANK0 1
RunUARTRXService@i 58 0 BANK0 1
_USART_Init 54A 0 CODE 0
ES_EnQueueFIFO@pBlock 53 0 BANK0 1
clear_ram0 5F8 0 CODE 0
__end_of_ClearReceivedDataArray 5CB 0 CODE 0
ES_Timer_RTI_Resp@NextTimer2Process 41 0 BANK0 1
__HbssBANK0 0 0 ABS 0
__LbssBANK0 0 0 ABS 0
__pbssBANK0 20 0 BANK0 1
ES_GetMSBitSet@Nybble2Test 4D 0 BANK0 1
__CFG_FCMEN$OFF 0 0 ABS 0
__size_of_RunSPIService 0 0 ABS 0
_BitNum2SetMask 4B2 0 STRING 0
__HbssBANK1 0 0 ABS 0
__LbssBANK1 0 0 ABS 0
__end_of_ES_Run C0 0 CODE 0
__pbssBANK1 A0 0 BANK1 1
__size_of_ES_GetMSBitSet 0 0 ABS 0
__ptext10 19E 0 CODE 0
__ptext20 592 0 CODE 0
_ES_PostToService 4C3 0 CODE 0
__ptext11 4F1 0 CODE 0
__ptext21 3F2 0 CODE 0
__ptext12 564 0 CODE 0
__ptext22 C0 0 CODE 0
__ptext13 26B 0 CODE 0
ES_EnQueueFIFO@pThisQueue 54 0 BANK0 1
__ptext23 5BA 0 CODE 0
__HidataBANK1 0 0 ABS 0
__LidataBANK1 0 0 ABS 0
__ptext14 3B8 0 CODE 0
__pidataBANK1 5D8 0 CODE 0
__end_of_Timer2PostFunc 4B2 0 STRING 0
__ptext24 322 0 CODE 0
__ptext15 52D 0 CODE 0
__ptext25 600 0 CODE 0
_TMR_TimerArray A0 0 BANK1 1
__ptext16 4C3 0 CODE 0
__CFG_BOREN$OFF 0 0 ABS 0
__ptext17 2C9 0 CODE 0
__ptext18 57B 0 CODE 0
_newResponseAvailable 3E 0 BANK0 1
__HbssCOMMON 0 0 ABS 0
__LbssCOMMON 0 0 ABS 0
__ptext19 50F 0 CODE 0
ES_Run@ThisEvent 45 0 BANK0 1
__pbssCOMMON 78 0 COMMON 1
_ES_Sys_Timer_Init 50F 0 CODE 0
__Hend_init F 0 CODE 0
__Lend_init D 0 CODE 0
__end_of__fptable 42 0 ENTRY 0
__size_of_InitUARTRXService 0 0 ABS 0
__end_of_RunUARTRXService 26B 0 CODE 0
_ClearReceivedDataArray 5BA 0 CODE 0
InitUARTRXService@Priority 5A 0 BANK0 1
__Hreset_vec 2 0 CODE 0
__Lreset_vec 0 0 CODE 0
_Timer2PostFunc 4AA 0 STRING 0
__end_of_ServDescList 4C2 0 STRING 0
__size_of_CheckSSEvent 0 0 ABS 0
__end_of_PostUARTRXService 5D8 0 CODE 0
__size_of_PostUARTRXService 0 0 ABS 0
init_ram0 5AD 0 CODE 0
intlevel0 30 0 ENTRY 0
__CFG_WDTE$OFF 0 0 ABS 0
intlevel1 30 0 ENTRY 0
intlevel2 30 0 ENTRY 0
intlevel3 30 0 ENTRY 0
intlevel4 30 0 ENTRY 0
intlevel5 30 0 ENTRY 0
ES_DeQueue@pThisQueue 55 0 BANK0 1
__end_of_ES_InitQueue 5A9 0 CODE 0
ES_InitQueue@pBlock 4A 0 BANK0 1
_ES_Timer_RTI_Resp 135 0 CODE 0
__end_of_ES_Sys_Timer_Init 52D 0 CODE 0
_ES_Initialize 26B 0 CODE 0
__HcstackCOMMON 0 0 ABS 0
__LcstackCOMMON 0 0 ABS 0
__pcstackCOMMON 70 0 COMMON 1
SPI_SM@currentState 3A 0 BANK0 1
__CFG_CPD$OFF 0 0 ABS 0
start_initialization F 0 CODE 0
RunUARTRXService@FieldAddressLSB 57 0 BANK0 1
__Hmaintext 0 0 ABS 0
__Lmaintext 0 0 ABS 0
__CFG_IESO$OFF 0 0 ABS 0
__pmaintext 42C 0 CODE 0
ES_EnQueueFIFO@InsertionPoint 52 0 BANK0 1
__CFG_MCLRE$ON 0 0 ABS 0
__Hinittext 0 0 ABS 0
__Linittext 0 0 ABS 0
ES_EnQueueFIFO@saveCrit 51 0 BANK0 1
_PackageResponseStore 39 0 BANK0 1
__end_of_ES_Initialize 2C9 0 CODE 0
UARTRXIntResponse@newByte 73 0 COMMON 1
__size_of__fptable 0 0 ABS 0
__initialization F 0 CODE 0
__stringbase 49A 0 STRING 0
SPI_SM@MyPriority 3B 0 BANK0 1
_CheckUARTRXEvent 4F1 0 CODE 0
___bmul@product 4A 0 BANK0 1
__CFG_CP$OFF 0 0 ABS 0
CheckSSEvent@thisSS 4A 0 BANK0 1
__end_of_USART_Init 564 0 CODE 0
__size_of_RunUARTRXService 0 0 ABS 0
_CheckSSEvent 564 0 CODE 0
__size_of___bmul 0 0 ABS 0
__end_of___bmul 592 0 CODE 0
ES_DeQueue@pBlock 54 0 BANK0 1
__end_of_InitSPIService 3F2 0 CODE 0
%segments
reset_vec 0 3 CODE 0 0
intentry 8 5F CODE 8 0
functab 60 83 ENTRY 60 0
config 400E 400F CONFIG 400E 0
cstackCOMMON 70 7D COMMON 70 1
bssBANK0 20 66 BANK0 20 1
bssBANK1 A0 D2 BANK1 A0 1
text2 84 929 CODE 84 0
strings 92A 985 STRING 92A 0
text16 986 C03 CODE 986 0
jmp_tab__ES_Run 4 7 ENTRY 4 0
%locals
dist/Managed_Stack/production\COMPASS_SW.production.o
C:\Users\ME218TA\AppData\Local\Temp\s63k.s
2147 F 0 CODE 0
2150 F 0 CODE 0
2284 F 0 CODE 0
2285 10 0 CODE 0
2286 11 0 CODE 0
2287 12 0 CODE 0
2288 13 0 CODE 0
2289 14 0 CODE 0
2290 15 0 CODE 0
2291 16 0 CODE 0
2292 17 0 CODE 0
2293 18 0 CODE 0
2312 1B 0 CODE 0
2313 1C 0 CODE 0
2314 1D 0 CODE 0
2315 1E 0 CODE 0
2318 21 0 CODE 0
2319 22 0 CODE 0
2320 23 0 CODE 0
2321 24 0 CODE 0
2324 27 0 CODE 0
2325 28 0 CODE 0
2326 29 0 CODE 0
2327 2A 0 CODE 0
2333 2D 0 CODE 0
2335 2D 0 CODE 0
2336 2E 0 CODE 0
2258 5A9 0 CODE 0
2259 5A9 0 CODE 0
2260 5AA 0 CODE 0
2261 5AB 0 CODE 0
2262 5AC 0 CODE 0
2269 5AD 0 CODE 0
2270 5AD 0 CODE 0
2271 5B0 0 CODE 0
2272 5B1 0 CODE 0
2273 5B2 0 CODE 0
2274 5B3 0 CODE 0
2275 5B4 0 CODE 0
2276 5B5 0 CODE 0
2277 5B6 0 CODE 0
2278 5B7 0 CODE 0
2279 5B8 0 CODE 0
2280 5B9 0 CODE 0
2299 5F8 0 CODE 0
2300 5F8 0 CODE 0
2301 5F9 0 CODE 0
2302 5F9 0 CODE 0
2303 5FA 0 CODE 0
2304 5FB 0 CODE 0
2305 5FC 0 CODE 0
2306 5FD 0 CODE 0
2307 5FE 0 CODE 0
2308 5FF 0 CODE 0
main.c
21 42C 0 CODE 0
28 42C 0 CODE 0
30 430 0 CODE 0
33 433 0 CODE 0
34 436 0 CODE 0
35 439 0 CODE 0
38 43C 0 CODE 0
39 43F 0 CODE 0
42 442 0 CODE 0
45 44B 0 CODE 0
48 44C 0 CODE 0
50 451 0 CODE 0
54 45A 0 CODE 0
64 462 0 CODE 0
50 2 0 ENTRY 0
sci.c
11 54A 0 CODE 0
13 54A 0 CODE 0
16 54B 0 CODE 0
17 54F 0 CODE 0
18 550 0 CODE 0
19 551 0 CODE 0
22 552 0 CODE 0
23 553 0 CODE 0
26 556 0 CODE 0
27 559 0 CODE 0
28 55A 0 CODE 0
31 55B 0 CODE 0
34 55C 0 CODE 0
35 55F 0 CODE 0
38 562 0 CODE 0
40 563 0 CODE 0
ES_Framework.c
224 42 0 CODE 0
229 45 0 CODE 0
233 45 0 CODE 0
234 46 0 CODE 0
235 4F 0 CODE 0
236 63 0 CODE 0
245 70 0 CODE 0
248 85 0 CODE 0
243 96 0 CODE 0
233 A0 0 CODE 0
255 A8 0 CODE 0
254 AB 0 CODE 0
259 B3 0 CODE 0
260 B6 0 CODE 0
264 BC 0 CODE 0
UART_RX_SM.c
140 205 0 CODE 0
143 205 0 CODE 0
145 208 0 CODE 0
148 209 0 CODE 0
151 20F 0 CODE 0
153 215 0 CODE 0
155 216 0 CODE 0
156 21A 0 CODE 0
158 21E 0 CODE 0
161 22D 0 CODE 0
163 22E 0 CODE 0
161 239 0 CODE 0
166 243 0 CODE 0
168 247 0 CODE 0
169 24F 0 CODE 0
175 254 0 CODE 0
177 25A 0 CODE 0
145 25C 0 CODE 0
184 264 0 CODE 0
185 26A 0 CODE 0
ES_Timers.c
205 465 0 CODE 0
212 468 0 CODE 0
214 480 0 CODE 0
215 48B 0 CODE 0
217 494 0 CODE 0
SPI_SM.c
155 5EE 0 CODE 0
157 5EE 0 CODE 0
159 5F1 0 CODE 0
160 5F7 0 CODE 0
ES_Port.c
78 5E3 0 CODE 0
79 5E3 0 CODE 0
80 5E8 0 CODE 0
81 5EA 0 CODE 0
83 5EC 0 CODE 0
84 5ED 0 CODE 0
ES_Timers.c
259 135 0 CODE 0
264 135 0 CODE 0
265 13D 0 CODE 0
267 142 0 CODE 0
270 146 0 CODE 0
272 14F 0 CODE 0
273 168 0 CODE 0
274 16C 0 CODE 0
276 173 0 CODE 0
278 182 0 CODE 0
281 18E 0 CODE 0
282 198 0 CODE 0
285 19D 0 CODE 0
UART_RX_SM.c
119 5CB 0 CODE 0
120 5CB 0 CODE 0
121 5D7 0 CODE 0
ES_LookupTables.c
78 375 0 CODE 0
82 378 0 CODE 0
85 37C 0 CODE 0
90 37E 0 CODE 0
91 396 0 CODE 0
94 39B 0 CODE 0
95 3AD 0 CODE 0
86 3AE 0 CODE 0
98 3B6 0 CODE 0
99 3B7 0 CODE 0
ES_Queue.c
125 19E 0 CODE 0
131 1A1 0 CODE 0
132 1A5 0 CODE 0
134 1AE 0 CODE 0
135 1B3 0 CODE 0
137 1D7 0 CODE 0
138 1DD 0 CODE 0
139 1EB 0 CODE 0
141 1EE 0 CODE 0
142 1F7 0 CODE 0
143 1F9 0 CODE 0
144 1FA 0 CODE 0
145 1FD 0 CODE 0
146 202 0 CODE 0
148 203 0 CODE 0
149 204 0 CODE 0
UART_RX_SM.c
352 4F1 0 CODE 0
353 4F1 0 CODE 0
357 4F8 0 CODE 0
358 4FC 0 CODE 0
359 4FE 0 CODE 0
361 508 0 CODE 0
362 50B 0 CODE 0
364 50D 0 CODE 0
365 50E 0 CODE 0
SPI_SM.c
253 564 0 CODE 0
256 564 0 CODE 0
258 564 0 CODE 0
259 56A 0 CODE 0
262 575 0 CODE 0
263 576 0 CODE 0
266 576 0 CODE 0
268 57A 0 CODE 0
ES_Framework.c
189 26B 0 CODE 0
191 26B 0 CODE 0
193 26E 0 CODE 0
195 271 0 CODE 0
196 28B 0 CODE 0
198 28D 0 CODE 0
200 2A3 0 CODE 0
201 2B9 0 CODE 0
193 2BB 0 CODE 0
203 2C7 0 CODE 0
204 2C8 0 CODE 0
SPI_SM.c
71 3B8 0 CODE 0
74 3B8 0 CODE 0
77 3BE 0 CODE 0
81 3BF 0 CODE 0
89 3C2 0 CODE 0
90 3C3 0 CODE 0
91 3C4 0 CODE 0
92 3C5 0 CODE 0
95 3C6 0 CODE 0
98 3CE 0 CODE 0
103 3D1 0 CODE 0
106 3D3 0 CODE 0
108 3D4 0 CODE 0
109 3D7 0 CODE 0
110 3D8 0 CODE 0
113 3D9 0 CODE 0
114 3DF 0 CODE 0
115 3EE 0 CODE 0
117 3F0 0 CODE 0
119 3F1 0 CODE 0
UART_RX_SM.c
88 52D 0 CODE 0
91 52D 0 CODE 0
94 533 0 CODE 0
95 537 0 CODE 0
96 546 0 CODE 0
98 548 0 CODE 0
100 549 0 CODE 0
ES_Framework.c
313 4C3 0 CODE 0
316 4C6 0 CODE 0
317 4E2 0 CODE 0
318 4ED 0 CODE 0
320 4EF 0 CODE 0
321 4F0 0 CODE 0
ES_Queue.c
83 2C9 0 CODE 0
88 2CC 0 CODE 0
91 2D0 0 CODE 0
93 2E0 0 CODE 0
94 2EC 0 CODE 0
95 2F4 0 CODE 0
98 2F8 0 CODE 0
99 2FD 0 CODE 0
100 315 0 CODE 0
101 31C 0 CODE 0
103 31E 0 CODE 0
105 320 0 CODE 0
106 321 0 CODE 0
C:\Program Files (x86)\Microchip\xc8\v2.10\pic\sources\c90\common\Umul8.c
4 57B 0 CODE 0
6 57E 0 CODE 0
43 57F 0 CODE 0
44 583 0 CODE 0
45 587 0 CODE 0
46 589 0 CODE 0
47 58B 0 CODE 0
50 590 0 CODE 0
51 591 0 CODE 0
ES_Port.c
25 50F 0 CODE 0
29 50F 0 CODE 0
30 512 0 CODE 0
31 515 0 CODE 0
34 518 0 CODE 0
35 51B 0 CODE 0
38 51E 0 CODE 0
40 51F 0 CODE 0
41 522 0 CODE 0
42 523 0 CODE 0
43 524 0 CODE 0
44 525 0 CODE 0
46 526 0 CODE 0
47 529 0 CODE 0
48 52A 0 CODE 0
50 52B 0 CODE 0
51 52C 0 CODE 0
ES_Queue.c
56 592 0 CODE 0
60 595 0 CODE 0
62 599 0 CODE 0
63 5A1 0 CODE 0
64 5A4 0 CODE 0
66 5A8 0 CODE 0
ES_Port.c
53 3F2 0 CODE 0
54 3F2 0 CODE 0
56 3F5 0 CODE 0
57 3FF 0 CODE 0
60 402 0 CODE 0
61 40E 0 CODE 0
69 411 0 CODE 0
70 415 0 CODE 0
71 416 0 CODE 0
72 41A 0 CODE 0
75 420 0 CODE 0
76 423 0 CODE 0
53 4 0 CODE 0
UART_RX_SM.c
268 C0 0 CODE 0
272 C0 0 CODE 0
273 C6 0 CODE 0
275 C7 0 CODE 0
277 CD 0 CODE 0
278 D0 0 CODE 0
283 D3 0 CODE 0
285 D8 0 CODE 0
286 DC 0 CODE 0
289 DD 0 CODE 0
294 DF 0 CODE 0
295 E3 0 CODE 0
301 EA 0 CODE 0
302 EB 0 CODE 0
304 EC 0 CODE 0
309 F1 0 CODE 0
311 F7 0 CODE 0
312 FF 0 CODE 0
313 103 0 CODE 0
315 109 0 CODE 0
316 10A 0 CODE 0
321 10F 0 CODE 0
323 110 0 CODE 0
324 114 0 CODE 0
327 115 0 CODE 0
328 119 0 CODE 0
330 11E 0 CODE 0
273 123 0 CODE 0
337 134 0 CODE 0
383 5BA 0 CODE 0
384 5BA 0 CODE 0
386 5BB 0 CODE 0
384 5C0 0 CODE 0
388 5CA 0 CODE 0
SPI_SM.c
176 322 0 CODE 0
180 322 0 CODE 0
183 328 0 CODE 0
186 32E 0 CODE 0
190 32F 0 CODE 0
193 331 0 CODE 0
195 339 0 CODE 0
197 34B 0 CODE 0
198 356 0 CODE 0
199 357 0 CODE 0
201 35B 0 CODE 0
202 35D 0 CODE 0
204 35E 0 CODE 0
205 360 0 CODE 0
206 364 0 CODE 0
208 365 0 CODE 0
209 366 0 CODE 0
210 367 0 CODE 0
186 368 0 CODE 0
213 373 0 CODE 0
214 373 0 CODE 0
216 374 0 CODE 0
UART_RX_SM.c
234 600 0 CODE 0
235 600 0 CODE 0
236 601 0 CODE 0
C:\Users\ME218TA\AppData\Local\Temp\s63k.s
6721 30 0 ENTRY 0
6723 30 0 ENTRY 0
6724 30 0 ENTRY 0
6725 30 0 ENTRY 0
6726 31 0 ENTRY 0
6727 32 0 ENTRY 0
6728 33 0 ENTRY 0
6729 34 0 ENTRY 0
6731 35 0 ENTRY 0
6732 35 0 ENTRY 0
6735 36 0 ENTRY 0
6736 36 0 ENTRY 0
6739 38 0 ENTRY 0
6740 38 0 ENTRY 0
6743 3A 0 ENTRY 0
6744 3A 0 ENTRY 0
6746 3A 0 ENTRY 0
6749 3C 0 ENTRY 0
6750 3C 0 ENTRY 0
6753 3E 0 ENTRY 0
6754 3E 0 ENTRY 0
6756 3E 0 ENTRY 0
6759 40 0 ENTRY 0
6760 40 0 ENTRY 0
6762 40 0 ENTRY 0
