
# 1 "ES_Port.c"

# 18 "C:\Program Files (x86)\Microchip\xc8\v2.10\pic\include\xc.h"
extern const char __xc8_OPTIM_SPEED;

extern double __fpnormalize(double);


# 13 "C:\Program Files (x86)\Microchip\xc8\v2.10\pic\include\c90\xc8debug.h"
#pragma intrinsic(__builtin_software_breakpoint)
extern void __builtin_software_breakpoint(void);

# 52 "C:\Program Files (x86)\Microchip\xc8\v2.10\pic\include\pic16f690.h"
extern volatile unsigned char INDF __at(0x000);

asm("INDF equ 00h");




extern volatile unsigned char TMR0 __at(0x001);

asm("TMR0 equ 01h");




extern volatile unsigned char PCL __at(0x002);

asm("PCL equ 02h");




extern volatile unsigned char STATUS __at(0x003);

asm("STATUS equ 03h");


typedef union {
struct {
unsigned C :1;
unsigned DC :1;
unsigned Z :1;
unsigned nPD :1;
unsigned nTO :1;
unsigned RP :2;
unsigned IRP :1;
};
struct {
unsigned :5;
unsigned RP0 :1;
unsigned RP1 :1;
};
struct {
unsigned CARRY :1;
unsigned :1;
unsigned ZERO :1;
};
} STATUSbits_t;
extern volatile STATUSbits_t STATUSbits __at(0x003);

# 159
extern volatile unsigned char FSR __at(0x004);

asm("FSR equ 04h");




extern volatile unsigned char PORTA __at(0x005);

asm("PORTA equ 05h");


typedef union {
struct {
unsigned RA0 :1;
unsigned RA1 :1;
unsigned RA2 :1;
unsigned RA3 :1;
unsigned RA4 :1;
unsigned RA5 :1;
};
} PORTAbits_t;
extern volatile PORTAbits_t PORTAbits __at(0x005);

# 216
extern volatile unsigned char PORTB __at(0x006);

asm("PORTB equ 06h");


typedef union {
struct {
unsigned :4;
unsigned RB4 :1;
unsigned RB5 :1;
unsigned RB6 :1;
unsigned RB7 :1;
};
} PORTBbits_t;
extern volatile PORTBbits_t PORTBbits __at(0x006);

# 255
extern volatile unsigned char PORTC __at(0x007);

asm("PORTC equ 07h");


typedef union {
struct {
unsigned RC0 :1;
unsigned RC1 :1;
unsigned RC2 :1;
unsigned RC3 :1;
unsigned RC4 :1;
unsigned RC5 :1;
unsigned RC6 :1;
unsigned RC7 :1;
};
} PORTCbits_t;
extern volatile PORTCbits_t PORTCbits __at(0x007);

# 317
extern volatile unsigned char PCLATH __at(0x00A);

asm("PCLATH equ 0Ah");




extern volatile unsigned char INTCON __at(0x00B);

asm("INTCON equ 0Bh");


typedef union {
struct {
unsigned RABIF :1;
unsigned INTF :1;
unsigned T0IF :1;
unsigned RABIE :1;
unsigned INTE :1;
unsigned T0IE :1;
unsigned PEIE :1;
unsigned GIE :1;
};
} INTCONbits_t;
extern volatile INTCONbits_t INTCONbits __at(0x00B);

# 386
extern volatile unsigned char PIR1 __at(0x00C);

asm("PIR1 equ 0Ch");


typedef union {
struct {
unsigned TMR1IF :1;
unsigned TMR2IF :1;
unsigned CCP1IF :1;
unsigned SSPIF :1;
unsigned TXIF :1;
unsigned RCIF :1;
unsigned ADIF :1;
};
struct {
unsigned T1IF :1;
unsigned T2IF :1;
};
} PIR1bits_t;
extern volatile PIR1bits_t PIR1bits __at(0x00C);

# 456
extern volatile unsigned char PIR2 __at(0x00D);

asm("PIR2 equ 0Dh");


typedef union {
struct {
unsigned :4;
unsigned EEIF :1;
unsigned C1IF :1;
unsigned C2IF :1;
unsigned OSFIF :1;
};
} PIR2bits_t;
extern volatile PIR2bits_t PIR2bits __at(0x00D);

# 495
extern volatile unsigned short TMR1 __at(0x00E);

asm("TMR1 equ 0Eh");




extern volatile unsigned char TMR1L __at(0x00E);

asm("TMR1L equ 0Eh");




extern volatile unsigned char TMR1H __at(0x00F);

asm("TMR1H equ 0Fh");




extern volatile unsigned char T1CON __at(0x010);

asm("T1CON equ 010h");


typedef union {
struct {
unsigned TMR1ON :1;
unsigned TMR1CS :1;
unsigned nT1SYNC :1;
unsigned T1OSCEN :1;
unsigned T1CKPS :2;
unsigned TMR1GE :1;
unsigned T1GINV :1;
};
struct {
unsigned :4;
unsigned T1CKPS0 :1;
unsigned T1CKPS1 :1;
};
} T1CONbits_t;
extern volatile T1CONbits_t T1CONbits __at(0x010);

# 587
extern volatile unsigned char TMR2 __at(0x011);

asm("TMR2 equ 011h");




extern volatile unsigned char T2CON __at(0x012);

asm("T2CON equ 012h");


typedef union {
struct {
unsigned T2CKPS :2;
unsigned TMR2ON :1;
unsigned TOUTPS :4;
};
struct {
unsigned T2CKPS0 :1;
unsigned T2CKPS1 :1;
unsigned :1;
unsigned TOUTPS0 :1;
unsigned TOUTPS1 :1;
unsigned TOUTPS2 :1;
unsigned TOUTPS3 :1;
};
} T2CONbits_t;
extern volatile T2CONbits_t T2CONbits __at(0x012);

# 665
extern volatile unsigned char SSPBUF __at(0x013);

asm("SSPBUF equ 013h");




extern volatile unsigned char SSPCON __at(0x014);

asm("SSPCON equ 014h");


typedef union {
struct {
unsigned SSPM :4;
unsigned CKP :1;
unsigned SSPEN :1;
unsigned SSPOV :1;
unsigned WCOL :1;
};
struct {
unsigned SSPM0 :1;
unsigned SSPM1 :1;
unsigned SSPM2 :1;
unsigned SSPM3 :1;
};
} SSPCONbits_t;
extern volatile SSPCONbits_t SSPCONbits __at(0x014);

# 742
extern volatile unsigned short CCPR __at(0x015);

asm("CCPR equ 015h");




extern volatile unsigned char CCPR1L __at(0x015);

asm("CCPR1L equ 015h");




extern volatile unsigned char CCPR1H __at(0x016);

asm("CCPR1H equ 016h");




extern volatile unsigned char CCP1CON __at(0x017);

asm("CCP1CON equ 017h");


typedef union {
struct {
unsigned CCP1M :4;
unsigned DC1B :2;
unsigned P1M :2;
};
struct {
unsigned CCP1M0 :1;
unsigned CCP1M1 :1;
unsigned CCP1M2 :1;
unsigned CCP1M3 :1;
unsigned DC1B0 :1;
unsigned DC1B1 :1;
unsigned P1M0 :1;
unsigned P1M1 :1;
};
} CCP1CONbits_t;
extern volatile CCP1CONbits_t CCP1CONbits __at(0x017);

# 845
extern volatile unsigned char RCSTA __at(0x018);

asm("RCSTA equ 018h");


typedef union {
struct {
unsigned RX9D :1;
unsigned OERR :1;
unsigned FERR :1;
unsigned ADDEN :1;
unsigned CREN :1;
unsigned SREN :1;
unsigned RX9 :1;
unsigned SPEN :1;
};
} RCSTAbits_t;
extern volatile RCSTAbits_t RCSTAbits __at(0x018);

# 907
extern volatile unsigned char TXREG __at(0x019);

asm("TXREG equ 019h");




extern volatile unsigned char RCREG __at(0x01A);

asm("RCREG equ 01Ah");




extern volatile unsigned char PWM1CON __at(0x01C);

asm("PWM1CON equ 01Ch");


typedef union {
struct {
unsigned PDC :7;
unsigned PRSEN :1;
};
struct {
unsigned PDC0 :1;
unsigned PDC1 :1;
unsigned PDC2 :1;
unsigned PDC3 :1;
unsigned PDC4 :1;
unsigned PDC5 :1;
unsigned PDC6 :1;
};
} PWM1CONbits_t;
extern volatile PWM1CONbits_t PWM1CONbits __at(0x01C);

# 991
extern volatile unsigned char ECCPAS __at(0x01D);

asm("ECCPAS equ 01Dh");


typedef union {
struct {
unsigned PSSBD :2;
unsigned PSSAC :2;
unsigned ECCPAS :3;
unsigned ECCPASE :1;
};
struct {
unsigned PSSBD0 :1;
unsigned PSSBD1 :1;
unsigned PSSAC0 :1;
unsigned PSSAC1 :1;
unsigned ECCPAS0 :1;
unsigned ECCPAS1 :1;
unsigned ECCPAS2 :1;
};
} ECCPASbits_t;
extern volatile ECCPASbits_t ECCPASbits __at(0x01D);

# 1073
extern volatile unsigned char ADRESH __at(0x01E);

asm("ADRESH equ 01Eh");




extern volatile unsigned char ADCON0 __at(0x01F);

asm("ADCON0 equ 01Fh");


typedef union {
struct {
unsigned ADON :1;
unsigned GO_nDONE :1;
unsigned CHS :4;
unsigned VCFG :1;
unsigned ADFM :1;
};
struct {
unsigned :1;
unsigned GO :1;
unsigned CHS0 :1;
unsigned CHS1 :1;
unsigned CHS2 :1;
unsigned CHS3 :1;
};
struct {
unsigned :1;
unsigned nDONE :1;
};
struct {
unsigned :1;
unsigned GO_DONE :1;
};
} ADCON0bits_t;
extern volatile ADCON0bits_t ADCON0bits __at(0x01F);

# 1175
extern volatile unsigned char OPTION_REG __at(0x081);

asm("OPTION_REG equ 081h");


typedef union {
struct {
unsigned PS :3;
unsigned PSA :1;
unsigned T0SE :1;
unsigned T0CS :1;
unsigned INTEDG :1;
unsigned nRABPU :1;
};
struct {
unsigned PS0 :1;
unsigned PS1 :1;
unsigned PS2 :1;
};
} OPTION_REGbits_t;
extern volatile OPTION_REGbits_t OPTION_REGbits __at(0x081);

# 1245
extern volatile unsigned char TRISA __at(0x085);

asm("TRISA equ 085h");


typedef union {
struct {
unsigned TRISA0 :1;
unsigned TRISA1 :1;
unsigned TRISA2 :1;
unsigned TRISA3 :1;
unsigned TRISA4 :1;
unsigned TRISA5 :1;
};
} TRISAbits_t;
extern volatile TRISAbits_t TRISAbits __at(0x085);

# 1295
extern volatile unsigned char TRISB __at(0x086);

asm("TRISB equ 086h");


typedef union {
struct {
unsigned :4;
unsigned TRISB4 :1;
unsigned TRISB5 :1;
unsigned TRISB6 :1;
unsigned TRISB7 :1;
};
} TRISBbits_t;
extern volatile TRISBbits_t TRISBbits __at(0x086);

# 1334
extern volatile unsigned char TRISC __at(0x087);

asm("TRISC equ 087h");


typedef union {
struct {
unsigned TRISC0 :1;
unsigned TRISC1 :1;
unsigned TRISC2 :1;
unsigned TRISC3 :1;
unsigned TRISC4 :1;
unsigned TRISC5 :1;
unsigned TRISC6 :1;
unsigned TRISC7 :1;
};
} TRISCbits_t;
extern volatile TRISCbits_t TRISCbits __at(0x087);

# 1396
extern volatile unsigned char PIE1 __at(0x08C);

asm("PIE1 equ 08Ch");


typedef union {
struct {
unsigned TMR1IE :1;
unsigned TMR2IE :1;
unsigned CCP1IE :1;
unsigned SSPIE :1;
unsigned TXIE :1;
unsigned RCIE :1;
unsigned ADIE :1;
};
struct {
unsigned T1IE :1;
unsigned T2IE :1;
};
} PIE1bits_t;
extern volatile PIE1bits_t PIE1bits __at(0x08C);

# 1466
extern volatile unsigned char PIE2 __at(0x08D);

asm("PIE2 equ 08Dh");


typedef union {
struct {
unsigned :4;
unsigned EEIE :1;
unsigned C1IE :1;
unsigned C2IE :1;
unsigned OSFIE :1;
};
} PIE2bits_t;
extern volatile PIE2bits_t PIE2bits __at(0x08D);

# 1505
extern volatile unsigned char PCON __at(0x08E);

asm("PCON equ 08Eh");


typedef union {
struct {
unsigned nBOR :1;
unsigned nPOR :1;
unsigned :2;
unsigned SBOREN :1;
unsigned ULPWUE :1;
};
} PCONbits_t;
extern volatile PCONbits_t PCONbits __at(0x08E);

# 1544
extern volatile unsigned char OSCCON __at(0x08F);

asm("OSCCON equ 08Fh");


typedef union {
struct {
unsigned SCS :1;
unsigned LTS :1;
unsigned HTS :1;
unsigned OSTS :1;
unsigned IRCF :3;
};
struct {
unsigned :4;
unsigned IRCF0 :1;
unsigned IRCF1 :1;
unsigned IRCF2 :1;
};
} OSCCONbits_t;
extern volatile OSCCONbits_t OSCCONbits __at(0x08F);

# 1609
extern volatile unsigned char OSCTUNE __at(0x090);

asm("OSCTUNE equ 090h");


typedef union {
struct {
unsigned TUN :5;
};
struct {
unsigned TUN0 :1;
unsigned TUN1 :1;
unsigned TUN2 :1;
unsigned TUN3 :1;
unsigned TUN4 :1;
};
} OSCTUNEbits_t;
extern volatile OSCTUNEbits_t OSCTUNEbits __at(0x090);

# 1661
extern volatile unsigned char PR2 __at(0x092);

asm("PR2 equ 092h");




extern volatile unsigned char SSPADD __at(0x093);

asm("SSPADD equ 093h");




extern volatile unsigned char SSPMSK __at(0x093);

asm("SSPMSK equ 093h");


extern volatile unsigned char MSK __at(0x093);

asm("MSK equ 093h");


typedef union {
struct {
unsigned MSK0 :1;
unsigned MSK1 :1;
unsigned MSK2 :1;
unsigned MSK3 :1;
unsigned MSK4 :1;
unsigned MSK5 :1;
unsigned MSK6 :1;
unsigned MSK7 :1;
};
} SSPMSKbits_t;
extern volatile SSPMSKbits_t SSPMSKbits __at(0x093);

# 1740
typedef union {
struct {
unsigned MSK0 :1;
unsigned MSK1 :1;
unsigned MSK2 :1;
unsigned MSK3 :1;
unsigned MSK4 :1;
unsigned MSK5 :1;
unsigned MSK6 :1;
unsigned MSK7 :1;
};
} MSKbits_t;
extern volatile MSKbits_t MSKbits __at(0x093);

# 1797
extern volatile unsigned char SSPSTAT __at(0x094);

asm("SSPSTAT equ 094h");


typedef union {
struct {
unsigned BF :1;
unsigned UA :1;
unsigned R_nW :1;
unsigned S :1;
unsigned P :1;
unsigned D_nA :1;
unsigned CKE :1;
unsigned SMP :1;
};
struct {
unsigned :2;
unsigned R :1;
unsigned :2;
unsigned D :1;
};
struct {
unsigned :2;
unsigned I2C_READ :1;
unsigned I2C_START :1;
unsigned I2C_STOP :1;
unsigned I2C_DATA :1;
};
struct {
unsigned :2;
unsigned nW :1;
unsigned :2;
unsigned nA :1;
};
struct {
unsigned :2;
unsigned nWRITE :1;
unsigned :2;
unsigned nADDRESS :1;
};
struct {
unsigned :2;
unsigned R_W :1;
unsigned :2;
unsigned D_A :1;
};
struct {
unsigned :2;
unsigned READ_WRITE :1;
unsigned :2;
unsigned DATA_ADDRESS :1;
};
} SSPSTATbits_t;
extern volatile SSPSTATbits_t SSPSTATbits __at(0x094);

# 1966
extern volatile unsigned char WPUA __at(0x095);

asm("WPUA equ 095h");


extern volatile unsigned char WPU __at(0x095);

asm("WPU equ 095h");


typedef union {
struct {
unsigned WPUA0 :1;
unsigned WPUA1 :1;
unsigned WPUA2 :1;
unsigned :1;
unsigned WPUA4 :1;
unsigned WPUA5 :1;
};
struct {
unsigned WPU0 :1;
unsigned WPU1 :1;
unsigned WPU2 :1;
unsigned :1;
unsigned WPU4 :1;
unsigned WPU5 :1;
};
} WPUAbits_t;
extern volatile WPUAbits_t WPUAbits __at(0x095);

# 2047
typedef union {
struct {
unsigned WPUA0 :1;
unsigned WPUA1 :1;
unsigned WPUA2 :1;
unsigned :1;
unsigned WPUA4 :1;
unsigned WPUA5 :1;
};
struct {
unsigned WPU0 :1;
unsigned WPU1 :1;
unsigned WPU2 :1;
unsigned :1;
unsigned WPU4 :1;
unsigned WPU5 :1;
};
} WPUbits_t;
extern volatile WPUbits_t WPUbits __at(0x095);

# 2120
extern volatile unsigned char IOCA __at(0x096);

asm("IOCA equ 096h");


extern volatile unsigned char IOC __at(0x096);

asm("IOC equ 096h");


typedef union {
struct {
unsigned IOCA0 :1;
unsigned IOCA1 :1;
unsigned IOCA2 :1;
unsigned IOCA3 :1;
unsigned IOCA4 :1;
unsigned IOCA5 :1;
};
struct {
unsigned IOC0 :1;
unsigned IOC1 :1;
unsigned IOC2 :1;
unsigned IOC3 :1;
unsigned IOC4 :1;
unsigned IOC5 :1;
};
} IOCAbits_t;
extern volatile IOCAbits_t IOCAbits __at(0x096);

# 2211
typedef union {
struct {
unsigned IOCA0 :1;
unsigned IOCA1 :1;
unsigned IOCA2 :1;
unsigned IOCA3 :1;
unsigned IOCA4 :1;
unsigned IOCA5 :1;
};
struct {
unsigned IOC0 :1;
unsigned IOC1 :1;
unsigned IOC2 :1;
unsigned IOC3 :1;
unsigned IOC4 :1;
unsigned IOC5 :1;
};
} IOCbits_t;
extern volatile IOCbits_t IOCbits __at(0x096);

# 2294
extern volatile unsigned char WDTCON __at(0x097);

asm("WDTCON equ 097h");


typedef union {
struct {
unsigned SWDTEN :1;
unsigned WDTPS :4;
};
struct {
unsigned :1;
unsigned WDTPS0 :1;
unsigned WDTPS1 :1;
unsigned WDTPS2 :1;
unsigned WDTPS3 :1;
};
} WDTCONbits_t;
extern volatile WDTCONbits_t WDTCONbits __at(0x097);

# 2347
extern volatile unsigned char TXSTA __at(0x098);

asm("TXSTA equ 098h");


typedef union {
struct {
unsigned TX9D :1;
unsigned TRMT :1;
unsigned BRGH :1;
unsigned SENDB :1;
unsigned SYNC :1;
unsigned TXEN :1;
unsigned TX9 :1;
unsigned CSRC :1;
};
struct {
unsigned :3;
unsigned SENB :1;
};
} TXSTAbits_t;
extern volatile TXSTAbits_t TXSTAbits __at(0x098);

# 2418
extern volatile unsigned char SPBRG __at(0x099);

asm("SPBRG equ 099h");


typedef union {
struct {
unsigned BRG0 :1;
unsigned BRG1 :1;
unsigned BRG2 :1;
unsigned BRG3 :1;
unsigned BRG4 :1;
unsigned BRG5 :1;
unsigned BRG6 :1;
unsigned BRG7 :1;
};
} SPBRGbits_t;
extern volatile SPBRGbits_t SPBRGbits __at(0x099);

# 2480
extern volatile unsigned char SPBRGH __at(0x09A);

asm("SPBRGH equ 09Ah");


typedef union {
struct {
unsigned BRG8 :1;
unsigned BRG9 :1;
unsigned BRG10 :1;
unsigned BRG11 :1;
unsigned BRG12 :1;
unsigned BRG13 :1;
unsigned BRG14 :1;
unsigned BRG15 :1;
};
} SPBRGHbits_t;
extern volatile SPBRGHbits_t SPBRGHbits __at(0x09A);

# 2542
extern volatile unsigned char BAUDCTL __at(0x09B);

asm("BAUDCTL equ 09Bh");


typedef union {
struct {
unsigned ABDEN :1;
unsigned WUE :1;
unsigned :1;
unsigned BRG16 :1;
unsigned SCKP :1;
unsigned :1;
unsigned RCIDL :1;
unsigned ABDOVF :1;
};
} BAUDCTLbits_t;
extern volatile BAUDCTLbits_t BAUDCTLbits __at(0x09B);

# 2594
extern volatile unsigned char ADRESL __at(0x09E);

asm("ADRESL equ 09Eh");




extern volatile unsigned char ADCON1 __at(0x09F);

asm("ADCON1 equ 09Fh");


typedef union {
struct {
unsigned :4;
unsigned ADCS :3;
};
struct {
unsigned :4;
unsigned ADCS0 :1;
unsigned ADCS1 :1;
unsigned ADCS2 :1;
};
} ADCON1bits_t;
extern volatile ADCON1bits_t ADCON1bits __at(0x09F);

# 2643
extern volatile unsigned char EEDAT __at(0x10C);

asm("EEDAT equ 010Ch");


extern volatile unsigned char EEDATA __at(0x10C);

asm("EEDATA equ 010Ch");




extern volatile unsigned char EEADR __at(0x10D);

asm("EEADR equ 010Dh");




extern volatile unsigned char EEDATH __at(0x10E);

asm("EEDATH equ 010Eh");




extern volatile unsigned char EEADRH __at(0x10F);

asm("EEADRH equ 010Fh");




extern volatile unsigned char WPUB __at(0x115);

asm("WPUB equ 0115h");


typedef union {
struct {
unsigned :4;
unsigned WPUB :4;
};
struct {
unsigned :4;
unsigned WPUB4 :1;
unsigned WPUB5 :1;
unsigned WPUB6 :1;
unsigned WPUB7 :1;
};
} WPUBbits_t;
extern volatile WPUBbits_t WPUBbits __at(0x115);

# 2724
extern volatile unsigned char IOCB __at(0x116);

asm("IOCB equ 0116h");


typedef union {
struct {
unsigned :4;
unsigned IOCB4 :1;
unsigned IOCB5 :1;
unsigned IOCB6 :1;
unsigned IOCB7 :1;
};
} IOCBbits_t;
extern volatile IOCBbits_t IOCBbits __at(0x116);

# 2763
extern volatile unsigned char VRCON __at(0x118);

asm("VRCON equ 0118h");


typedef union {
struct {
unsigned VR :4;
unsigned VP6EN :1;
unsigned VRR :1;
unsigned C2VREN :1;
unsigned C1VREN :1;
};
struct {
unsigned VR0 :1;
unsigned VR1 :1;
unsigned VR2 :1;
unsigned VR3 :1;
};
} VRCONbits_t;
extern volatile VRCONbits_t VRCONbits __at(0x118);

# 2833
extern volatile unsigned char CM1CON0 __at(0x119);

asm("CM1CON0 equ 0119h");


typedef union {
struct {
unsigned C1CH :2;
unsigned C1R :1;
unsigned :1;
unsigned C1POL :1;
unsigned C1OE :1;
unsigned C1OUT :1;
unsigned C1ON :1;
};
struct {
unsigned C1CH0 :1;
unsigned C1CH1 :1;
};
} CM1CON0bits_t;
extern volatile CM1CON0bits_t CM1CON0bits __at(0x119);

# 2898
extern volatile unsigned char CM2CON0 __at(0x11A);

asm("CM2CON0 equ 011Ah");


typedef union {
struct {
unsigned C2CH :2;
unsigned C2R :1;
unsigned :1;
unsigned C2POL :1;
unsigned C2OE :1;
unsigned C2OUT :1;
unsigned C2ON :1;
};
struct {
unsigned C2CH0 :1;
unsigned C2CH1 :1;
};
} CM2CON0bits_t;
extern volatile CM2CON0bits_t CM2CON0bits __at(0x11A);

# 2963
extern volatile unsigned char CM2CON1 __at(0x11B);

asm("CM2CON1 equ 011Bh");


typedef union {
struct {
unsigned C2SYNC :1;
unsigned T1GSS :1;
unsigned :4;
unsigned MC2OUT :1;
unsigned MC1OUT :1;
};
} CM2CON1bits_t;
extern volatile CM2CON1bits_t CM2CON1bits __at(0x11B);

# 3002
extern volatile unsigned char ANSEL __at(0x11E);

asm("ANSEL equ 011Eh");


typedef union {
struct {
unsigned ANS0 :1;
unsigned ANS1 :1;
unsigned ANS2 :1;
unsigned ANS3 :1;
unsigned ANS4 :1;
unsigned ANS5 :1;
unsigned ANS6 :1;
unsigned ANS7 :1;
};
} ANSELbits_t;
extern volatile ANSELbits_t ANSELbits __at(0x11E);

# 3064
extern volatile unsigned char ANSELH __at(0x11F);

asm("ANSELH equ 011Fh");


typedef union {
struct {
unsigned ANS8 :1;
unsigned ANS9 :1;
unsigned ANS10 :1;
unsigned ANS11 :1;
};
} ANSELHbits_t;
extern volatile ANSELHbits_t ANSELHbits __at(0x11F);

# 3102
extern volatile unsigned char EECON1 __at(0x18C);

asm("EECON1 equ 018Ch");


typedef union {
struct {
unsigned RD :1;
unsigned WR :1;
unsigned WREN :1;
unsigned WRERR :1;
unsigned :3;
unsigned EEPGD :1;
};
} EECON1bits_t;
extern volatile EECON1bits_t EECON1bits __at(0x18C);

# 3147
extern volatile unsigned char EECON2 __at(0x18D);

asm("EECON2 equ 018Dh");




extern volatile unsigned char PSTRCON __at(0x19D);

asm("PSTRCON equ 019Dh");


typedef union {
struct {
unsigned STRA :1;
unsigned STRB :1;
unsigned STRC :1;
unsigned STRD :1;
unsigned STRSYNC :1;
};
} PSTRCONbits_t;
extern volatile PSTRCONbits_t PSTRCONbits __at(0x19D);

# 3198
extern volatile unsigned char SRCON __at(0x19E);

asm("SRCON equ 019Eh");


typedef union {
struct {
unsigned :2;
unsigned PULSR :1;
unsigned PULSS :1;
unsigned C2REN :1;
unsigned C1SEN :1;
unsigned SR :2;
};
struct {
unsigned :6;
unsigned SR0 :1;
unsigned SR1 :1;
};
} SRCONbits_t;
extern volatile SRCONbits_t SRCONbits __at(0x19E);

# 3264
extern volatile __bit ABDEN __at(0x4D8);


extern volatile __bit ABDOVF __at(0x4DF);


extern volatile __bit ADCS0 __at(0x4FC);


extern volatile __bit ADCS1 __at(0x4FD);


extern volatile __bit ADCS2 __at(0x4FE);


extern volatile __bit ADDEN __at(0xC3);


extern volatile __bit ADFM __at(0xFF);


extern volatile __bit ADIE __at(0x466);


extern volatile __bit ADIF __at(0x66);


extern volatile __bit ADON __at(0xF8);


extern volatile __bit ANS0 __at(0x8F0);


extern volatile __bit ANS1 __at(0x8F1);


extern volatile __bit ANS10 __at(0x8FA);


extern volatile __bit ANS11 __at(0x8FB);


extern volatile __bit ANS2 __at(0x8F2);


extern volatile __bit ANS3 __at(0x8F3);


extern volatile __bit ANS4 __at(0x8F4);


extern volatile __bit ANS5 __at(0x8F5);


extern volatile __bit ANS6 __at(0x8F6);


extern volatile __bit ANS7 __at(0x8F7);


extern volatile __bit ANS8 __at(0x8F8);


extern volatile __bit ANS9 __at(0x8F9);


extern volatile __bit BF __at(0x4A0);


extern volatile __bit BRG0 __at(0x4C8);


extern volatile __bit BRG1 __at(0x4C9);


extern volatile __bit BRG10 __at(0x4D2);


extern volatile __bit BRG11 __at(0x4D3);


extern volatile __bit BRG12 __at(0x4D4);


extern volatile __bit BRG13 __at(0x4D5);


extern volatile __bit BRG14 __at(0x4D6);


extern volatile __bit BRG15 __at(0x4D7);


extern volatile __bit BRG16 __at(0x4DB);


extern volatile __bit BRG2 __at(0x4CA);


extern volatile __bit BRG3 __at(0x4CB);


extern volatile __bit BRG4 __at(0x4CC);


extern volatile __bit BRG5 __at(0x4CD);


extern volatile __bit BRG6 __at(0x4CE);


extern volatile __bit BRG7 __at(0x4CF);


extern volatile __bit BRG8 __at(0x4D0);


extern volatile __bit BRG9 __at(0x4D1);


extern volatile __bit BRGH __at(0x4C2);


extern volatile __bit C1CH0 __at(0x8C8);


extern volatile __bit C1CH1 __at(0x8C9);


extern volatile __bit C1IE __at(0x46D);


extern volatile __bit C1IF __at(0x6D);


extern volatile __bit C1OE __at(0x8CD);


extern volatile __bit C1ON __at(0x8CF);


extern volatile __bit C1OUT __at(0x8CE);


extern volatile __bit C1POL __at(0x8CC);


extern volatile __bit C1R __at(0x8CA);


extern volatile __bit C1SEN __at(0xCF5);


extern volatile __bit C1VREN __at(0x8C7);


extern volatile __bit C2CH0 __at(0x8D0);


extern volatile __bit C2CH1 __at(0x8D1);


extern volatile __bit C2IE __at(0x46E);


extern volatile __bit C2IF __at(0x6E);


extern volatile __bit C2OE __at(0x8D5);


extern volatile __bit C2ON __at(0x8D7);


extern volatile __bit C2OUT __at(0x8D6);


extern volatile __bit C2POL __at(0x8D4);


extern volatile __bit C2R __at(0x8D2);


extern volatile __bit C2REN __at(0xCF4);


extern volatile __bit C2SYNC __at(0x8D8);


extern volatile __bit C2VREN __at(0x8C6);


extern volatile __bit CARRY __at(0x18);


extern volatile __bit CCP1IE __at(0x462);


extern volatile __bit CCP1IF __at(0x62);


extern volatile __bit CCP1M0 __at(0xB8);


extern volatile __bit CCP1M1 __at(0xB9);


extern volatile __bit CCP1M2 __at(0xBA);


extern volatile __bit CCP1M3 __at(0xBB);


extern volatile __bit CHS0 __at(0xFA);


extern volatile __bit CHS1 __at(0xFB);


extern volatile __bit CHS2 __at(0xFC);


extern volatile __bit CHS3 __at(0xFD);


extern volatile __bit CKE __at(0x4A6);


extern volatile __bit CKP __at(0xA4);


extern volatile __bit CREN __at(0xC4);


extern volatile __bit CSRC __at(0x4C7);


extern volatile __bit DATA_ADDRESS __at(0x4A5);


extern volatile __bit DC __at(0x19);


extern volatile __bit DC1B0 __at(0xBC);


extern volatile __bit DC1B1 __at(0xBD);


extern volatile __bit D_A __at(0x4A5);


extern volatile __bit D_nA __at(0x4A5);


extern volatile __bit ECCPAS0 __at(0xEC);


extern volatile __bit ECCPAS1 __at(0xED);


extern volatile __bit ECCPAS2 __at(0xEE);


extern volatile __bit ECCPASE __at(0xEF);


extern volatile __bit EEIE __at(0x46C);


extern volatile __bit EEIF __at(0x6C);


extern volatile __bit EEPGD __at(0xC67);


extern volatile __bit FERR __at(0xC2);


extern volatile __bit GIE __at(0x5F);


extern volatile __bit GO __at(0xF9);


extern volatile __bit GO_DONE __at(0xF9);


extern volatile __bit GO_nDONE __at(0xF9);


extern volatile __bit HTS __at(0x47A);


extern volatile __bit I2C_DATA __at(0x4A5);


extern volatile __bit I2C_READ __at(0x4A2);


extern volatile __bit I2C_START __at(0x4A3);


extern volatile __bit I2C_STOP __at(0x4A4);


extern volatile __bit INTE __at(0x5C);


extern volatile __bit INTEDG __at(0x40E);


extern volatile __bit INTF __at(0x59);


extern volatile __bit IOC0 __at(0x4B0);


extern volatile __bit IOC1 __at(0x4B1);


extern volatile __bit IOC2 __at(0x4B2);


extern volatile __bit IOC3 __at(0x4B3);


extern volatile __bit IOC4 __at(0x4B4);


extern volatile __bit IOC5 __at(0x4B5);


extern volatile __bit IOCA0 __at(0x4B0);


extern volatile __bit IOCA1 __at(0x4B1);


extern volatile __bit IOCA2 __at(0x4B2);


extern volatile __bit IOCA3 __at(0x4B3);


extern volatile __bit IOCA4 __at(0x4B4);


extern volatile __bit IOCA5 __at(0x4B5);


extern volatile __bit IOCB4 __at(0x8B4);


extern volatile __bit IOCB5 __at(0x8B5);


extern volatile __bit IOCB6 __at(0x8B6);


extern volatile __bit IOCB7 __at(0x8B7);


extern volatile __bit IRCF0 __at(0x47C);


extern volatile __bit IRCF1 __at(0x47D);


extern volatile __bit IRCF2 __at(0x47E);


extern volatile __bit IRP __at(0x1F);


extern volatile __bit LTS __at(0x479);


extern volatile __bit MC1OUT __at(0x8DF);


extern volatile __bit MC2OUT __at(0x8DE);


extern volatile __bit MSK0 __at(0x498);


extern volatile __bit MSK1 __at(0x499);


extern volatile __bit MSK2 __at(0x49A);


extern volatile __bit MSK3 __at(0x49B);


extern volatile __bit MSK4 __at(0x49C);


extern volatile __bit MSK5 __at(0x49D);


extern volatile __bit MSK6 __at(0x49E);


extern volatile __bit MSK7 __at(0x49F);


extern volatile __bit OERR __at(0xC1);


extern volatile __bit OSFIE __at(0x46F);


extern volatile __bit OSFIF __at(0x6F);


extern volatile __bit OSTS __at(0x47B);


extern volatile __bit P1M0 __at(0xBE);


extern volatile __bit P1M1 __at(0xBF);


extern volatile __bit PDC0 __at(0xE0);


extern volatile __bit PDC1 __at(0xE1);


extern volatile __bit PDC2 __at(0xE2);


extern volatile __bit PDC3 __at(0xE3);


extern volatile __bit PDC4 __at(0xE4);


extern volatile __bit PDC5 __at(0xE5);


extern volatile __bit PDC6 __at(0xE6);


extern volatile __bit PEIE __at(0x5E);


extern volatile __bit PRSEN __at(0xE7);


extern volatile __bit PS0 __at(0x408);


extern volatile __bit PS1 __at(0x409);


extern volatile __bit PS2 __at(0x40A);


extern volatile __bit PSA __at(0x40B);


extern volatile __bit PSSAC0 __at(0xEA);


extern volatile __bit PSSAC1 __at(0xEB);


extern volatile __bit PSSBD0 __at(0xE8);


extern volatile __bit PSSBD1 __at(0xE9);


extern volatile __bit PULSR __at(0xCF2);


extern volatile __bit PULSS __at(0xCF3);


extern volatile __bit RA0 __at(0x28);


extern volatile __bit RA1 __at(0x29);


extern volatile __bit RA2 __at(0x2A);


extern volatile __bit RA3 __at(0x2B);


extern volatile __bit RA4 __at(0x2C);


extern volatile __bit RA5 __at(0x2D);


extern volatile __bit RABIE __at(0x5B);


extern volatile __bit RABIF __at(0x58);


extern volatile __bit RB4 __at(0x34);


extern volatile __bit RB5 __at(0x35);


extern volatile __bit RB6 __at(0x36);


extern volatile __bit RB7 __at(0x37);


extern volatile __bit RC0 __at(0x38);


extern volatile __bit RC1 __at(0x39);


extern volatile __bit RC2 __at(0x3A);


extern volatile __bit RC3 __at(0x3B);


extern volatile __bit RC4 __at(0x3C);


extern volatile __bit RC5 __at(0x3D);


extern volatile __bit RC6 __at(0x3E);


extern volatile __bit RC7 __at(0x3F);


extern volatile __bit RCIDL __at(0x4DE);


extern volatile __bit RCIE __at(0x465);


extern volatile __bit RCIF __at(0x65);


extern volatile __bit RD __at(0xC60);


extern volatile __bit READ_WRITE __at(0x4A2);


extern volatile __bit RP0 __at(0x1D);


extern volatile __bit RP1 __at(0x1E);


extern volatile __bit RX9 __at(0xC6);


extern volatile __bit RX9D __at(0xC0);


extern volatile __bit R_W __at(0x4A2);


extern volatile __bit R_nW __at(0x4A2);


extern volatile __bit SBOREN __at(0x474);


extern volatile __bit SCKP __at(0x4DC);


extern volatile __bit SCS __at(0x478);


extern volatile __bit SENB __at(0x4C3);


extern volatile __bit SENDB __at(0x4C3);


extern volatile __bit SMP __at(0x4A7);


extern volatile __bit SPEN __at(0xC7);


extern volatile __bit SR0 __at(0xCF6);


extern volatile __bit SR1 __at(0xCF7);


extern volatile __bit SREN __at(0xC5);


extern volatile __bit SSPEN __at(0xA5);


extern volatile __bit SSPIE __at(0x463);


extern volatile __bit SSPIF __at(0x63);


extern volatile __bit SSPM0 __at(0xA0);


extern volatile __bit SSPM1 __at(0xA1);


extern volatile __bit SSPM2 __at(0xA2);


extern volatile __bit SSPM3 __at(0xA3);


extern volatile __bit SSPOV __at(0xA6);


extern volatile __bit STRA __at(0xCE8);


extern volatile __bit STRB __at(0xCE9);


extern volatile __bit STRC __at(0xCEA);


extern volatile __bit STRD __at(0xCEB);


extern volatile __bit STRSYNC __at(0xCEC);


extern volatile __bit SWDTEN __at(0x4B8);


extern volatile __bit SYNC __at(0x4C4);


extern volatile __bit T0CS __at(0x40D);


extern volatile __bit T0IE __at(0x5D);


extern volatile __bit T0IF __at(0x5A);


extern volatile __bit T0SE __at(0x40C);


extern volatile __bit T1CKPS0 __at(0x84);


extern volatile __bit T1CKPS1 __at(0x85);


extern volatile __bit T1GINV __at(0x87);


extern volatile __bit T1GSS __at(0x8D9);


extern volatile __bit T1IE __at(0x460);


extern volatile __bit T1IF __at(0x60);


extern volatile __bit T1OSCEN __at(0x83);


extern volatile __bit T2CKPS0 __at(0x90);


extern volatile __bit T2CKPS1 __at(0x91);


extern volatile __bit T2IE __at(0x461);


extern volatile __bit T2IF __at(0x61);


extern volatile __bit TMR1CS __at(0x81);


extern volatile __bit TMR1GE __at(0x86);


extern volatile __bit TMR1IE __at(0x460);


extern volatile __bit TMR1IF __at(0x60);


extern volatile __bit TMR1ON __at(0x80);


extern volatile __bit TMR2IE __at(0x461);


extern volatile __bit TMR2IF __at(0x61);


extern volatile __bit TMR2ON __at(0x92);


extern volatile __bit TOUTPS0 __at(0x93);


extern volatile __bit TOUTPS1 __at(0x94);


extern volatile __bit TOUTPS2 __at(0x95);


extern volatile __bit TOUTPS3 __at(0x96);


extern volatile __bit TRISA0 __at(0x428);


extern volatile __bit TRISA1 __at(0x429);


extern volatile __bit TRISA2 __at(0x42A);


extern volatile __bit TRISA3 __at(0x42B);


extern volatile __bit TRISA4 __at(0x42C);


extern volatile __bit TRISA5 __at(0x42D);


extern volatile __bit TRISB4 __at(0x434);


extern volatile __bit TRISB5 __at(0x435);


extern volatile __bit TRISB6 __at(0x436);


extern volatile __bit TRISB7 __at(0x437);


extern volatile __bit TRISC0 __at(0x438);


extern volatile __bit TRISC1 __at(0x439);


extern volatile __bit TRISC2 __at(0x43A);


extern volatile __bit TRISC3 __at(0x43B);


extern volatile __bit TRISC4 __at(0x43C);


extern volatile __bit TRISC5 __at(0x43D);


extern volatile __bit TRISC6 __at(0x43E);


extern volatile __bit TRISC7 __at(0x43F);


extern volatile __bit TRMT __at(0x4C1);


extern volatile __bit TUN0 __at(0x480);


extern volatile __bit TUN1 __at(0x481);


extern volatile __bit TUN2 __at(0x482);


extern volatile __bit TUN3 __at(0x483);


extern volatile __bit TUN4 __at(0x484);


extern volatile __bit TX9 __at(0x4C6);


extern volatile __bit TX9D __at(0x4C0);


extern volatile __bit TXEN __at(0x4C5);


extern volatile __bit TXIE __at(0x464);


extern volatile __bit TXIF __at(0x64);


extern volatile __bit UA __at(0x4A1);


extern volatile __bit ULPWUE __at(0x475);


extern volatile __bit VCFG __at(0xFE);


extern volatile __bit VP6EN __at(0x8C4);


extern volatile __bit VR0 __at(0x8C0);


extern volatile __bit VR1 __at(0x8C1);


extern volatile __bit VR2 __at(0x8C2);


extern volatile __bit VR3 __at(0x8C3);


extern volatile __bit VRR __at(0x8C5);


extern volatile __bit WCOL __at(0xA7);


extern volatile __bit WDTPS0 __at(0x4B9);


extern volatile __bit WDTPS1 __at(0x4BA);


extern volatile __bit WDTPS2 __at(0x4BB);


extern volatile __bit WDTPS3 __at(0x4BC);


extern volatile __bit WPU0 __at(0x4A8);


extern volatile __bit WPU1 __at(0x4A9);


extern volatile __bit WPU2 __at(0x4AA);


extern volatile __bit WPU4 __at(0x4AC);


extern volatile __bit WPU5 __at(0x4AD);


extern volatile __bit WPUA0 __at(0x4A8);


extern volatile __bit WPUA1 __at(0x4A9);


extern volatile __bit WPUA2 __at(0x4AA);


extern volatile __bit WPUA4 __at(0x4AC);


extern volatile __bit WPUA5 __at(0x4AD);


extern volatile __bit WPUB4 __at(0x8AC);


extern volatile __bit WPUB5 __at(0x8AD);


extern volatile __bit WPUB6 __at(0x8AE);


extern volatile __bit WPUB7 __at(0x8AF);


extern volatile __bit WR __at(0xC61);


extern volatile __bit WREN __at(0xC62);


extern volatile __bit WRERR __at(0xC63);


extern volatile __bit WUE __at(0x4D9);


extern volatile __bit ZERO __at(0x1A);


extern volatile __bit nA __at(0x4A5);


extern volatile __bit nADDRESS __at(0x4A5);


extern volatile __bit nBOR __at(0x470);


extern volatile __bit nDONE __at(0xF9);


extern volatile __bit nPD __at(0x1B);


extern volatile __bit nPOR __at(0x471);


extern volatile __bit nRABPU __at(0x40F);


extern volatile __bit nT1SYNC __at(0x82);


extern volatile __bit nTO __at(0x1C);


extern volatile __bit nW __at(0x4A2);


extern volatile __bit nWRITE __at(0x4A2);


# 30 "C:\Program Files (x86)\Microchip\xc8\v2.10\pic\include\pic.h"
#pragma intrinsic(__nop)
extern void __nop(void);

# 78
__attribute__((__unsupported__("The " "FLASH_READ" " macro function is no longer supported. Please use the MPLAB X MCC."))) unsigned char __flash_read(unsigned short addr);

__attribute__((__unsupported__("The " "FLASH_WRITE" " macro function is no longer supported. Please use the MPLAB X MCC."))) void __flash_write(unsigned short addr, unsigned short data);

__attribute__((__unsupported__("The " "FLASH_ERASE" " macro function is no longer supported. Please use the MPLAB X MCC."))) void __flash_erase(unsigned short addr);

# 114 "C:\Program Files (x86)\Microchip\xc8\v2.10\pic\include\eeprom_routines.h"
extern void eeprom_write(unsigned char addr, unsigned char value);
extern unsigned char eeprom_read(unsigned char addr);


# 91 "C:\Program Files (x86)\Microchip\xc8\v2.10\pic\include\pic.h"
#pragma intrinsic(_delay)
extern __nonreentrant void _delay(unsigned long);
#pragma intrinsic(_delaywdt)
extern __nonreentrant void _delaywdt(unsigned long);

# 137
extern __bank0 unsigned char __resetbits;
extern __bank0 __bit __powerdown;
extern __bank0 __bit __timeout;

# 4 "ES_Types.h"
typedef unsigned char boolean;

# 11
typedef signed char int8_t;


typedef signed int int16_t;


typedef signed long int int32_t;



typedef unsigned char uint8_t;


typedef unsigned int uint16_t;


typedef unsigned long int uint32_t;

# 36 "ES_Timers.h"
typedef enum { ES_Timer_RATE_OFF = (0),
ES_Timer_RATE_1MS ,
ES_Timer_RATE_2MS ,
ES_Timer_RATE_4MS ,
ES_Timer_RATE_8MS ,
ES_Timer_RATE_16MS,
ES_Timer_RATE_32MS
} TimerRate_t;

typedef enum { ES_Timer_ERR = -1,
ES_Timer_ACTIVE = 1,
ES_Timer_OK = 0,
ES_Timer_NOT_ACTIVE = 0
} ES_TimerReturn_t;

void ES_Timer_Init(TimerRate_t Rate);
ES_TimerReturn_t ES_Timer_InitTimer(uint8_t Num, uint16_t NewTime);
ES_TimerReturn_t ES_Timer_SetTimer(uint8_t Num, uint16_t NewTime);
ES_TimerReturn_t ES_Timer_StartTimer(uint8_t Num);
ES_TimerReturn_t ES_Timer_StopTimer(uint8_t Num);
ES_TimerReturn_t ES_Timer_IsTimerActive(uint8_t Num);
uint16_t ES_Timer_GetTime(void);
void ES_Timer_RTI_Resp(void);

# 25 "ES_Port.h"
unsigned char IsTimerPending(void);
void ES_Sys_Timer_Init(void);

# 21 "ES_CheckEvents.h"
typedef boolean CheckFunc( void );

typedef CheckFunc (*pCheckFunc);

boolean ES_CheckUserEvents( void );

# 150 "ES_Configure.h"
typedef enum {
ES_NO_EVENT = 0,
ES_ERROR,
ES_INIT,
ES_NEW_KEY,
ES_TIMEOUT,

ES_LOCK,
ES_UNLOCK,
ES_RX_NEW_PACKET,
ES_RX_BROADCAST,
ES_RX_RESPONSE,
ES_RX_TXSTAT,
ES_TX_NEW_ADDR,
ES_TX_SEND_COMPLETE,
ES_TX_REQUEST_SEND,
ES_TX_STATUS,
ES_TOGGLE_LED
} ES_EventTyp_t;

# 72 "stdint.h"
typedef signed char int8_t;

# 77
typedef unsigned char uint8_t;

# 82
typedef signed int int16_t;

# 87
typedef unsigned int uint16_t;

# 92
typedef signed long int int32_t;

# 97
typedef unsigned long int uint32_t;

# 104
typedef signed long long int int64_t;

# 111
typedef unsigned long long int uint64_t;

# 140
typedef int16_t intptr_t;

# 145
typedef uint16_t uintptr_t;

# 157
typedef int8_t int_least8_t;

# 162
typedef uint8_t uint_least8_t;

# 167
typedef int16_t int_least16_t;

# 172
typedef uint16_t uint_least16_t;

# 177
typedef int32_t int_least32_t;

# 182
typedef uint32_t uint_least32_t;

# 190
typedef int64_t int_least64_t;

# 197
typedef uint64_t uint_least64_t;

# 211
typedef int8_t int_fast8_t;

# 216
typedef uint8_t uint_fast8_t;

# 221
typedef int16_t int_fast16_t;

# 226
typedef uint16_t uint_fast16_t;

# 231
typedef int32_t int_fast32_t;

# 236
typedef uint32_t uint_fast32_t;

# 244
typedef int64_t int_fast64_t;

# 251
typedef uint64_t uint_fast64_t;

# 271
typedef int64_t intmax_t;

# 276
typedef uint64_t uintmax_t;

# 23 "ES_Events.h"
typedef struct ES_Event_t {
ES_EventTyp_t EventType;
uint16_t EventParam;
}ES_Event;

# 21 "ES_PostList.h"
typedef boolean PostFunc_t( ES_Event );

typedef PostFunc_t (*pPostFunc);

boolean ES_PostList00( ES_Event);
boolean ES_PostList01( ES_Event);
boolean ES_PostList02( ES_Event);
boolean ES_PostList03( ES_Event);
boolean ES_PostList04( ES_Event);
boolean ES_PostList05( ES_Event);
boolean ES_PostList06( ES_Event);
boolean ES_PostList07( ES_Event);

# 25 "ES_Framework.h"
typedef enum {
Success = 0,
FailedPost = 1,
FailedRun,
FailedPointer,
FailedIndex,
FailedInit
} ES_Return_t;

ES_Return_t ES_Initialize( TimerRate_t NewRate );
ES_Return_t ES_Run( void );
boolean ES_PostAll( ES_Event ThisEvent );
boolean ES_PostToService( uint8_t WhichService, ES_Event ThisEvent);

# 6 "SPI_SM.h"
typedef enum {
Waiting4Command, Waiting4Dummy1, Waiting4Dummy2
} SPI_State_t;

boolean InitSPIService(uint8_t Priority);
boolean PostSPIService(ES_Event ThisEvent);
ES_Event RunSPIService(ES_Event ThisEvent);

boolean CheckSPIEvent(void);
boolean CheckSSEvent(void);

inline void SPIIntResponse(void);

boolean SPI_getCommOpen(void);

# 9 "UART_RX_SM.h"
uint8_t checksum;

typedef enum {
WaitFor7E, WaitForMSB, WaitForLSB,
SuckUpOverhead, SuckUpData, WaitForCkSum
} UART_RX_State_t;



boolean InitUARTRXService(uint8_t Priority);
boolean PostUARTRXService(ES_Event ThisEvent);
ES_Event RunUARTRXService(ES_Event ThisEvent);

boolean RX_hasHeartbeat(void);

inline boolean RX_newPackageReady(void);

volatile uint8_t * RX_getFieldDataBuffer(void);
uint16_t RX_getFieldAddr(void);

inline void UARTRXIntResponse(void);
boolean CheckUARTRXEvent(void);

# 10 "UART_TX_SM.h"
typedef enum {
InitPTXState, TX_Idle, TX_SendMSG, TX_WaitStatus
} UART_TX_State_t;

typedef enum {
TX_ERR_TIMEOUT,
TX_ERR_CCA,
TX_ERR_NO_ADDR
} UART_TX_Error_t;



boolean InitUARTTXService(uint8_t Priority);
boolean PostUARTTXService(ES_Event ThisEvent);
ES_Event RunUARTTXService(ES_Event ThisEvent);
UART_TX_State_t QueryUARTTXService(void);

boolean TX_clearXBeePacket(void);
boolean TX_appendXBeePacket(uint8_t newByte);
uint8_t TX_getChecksum(void);
uint8_t TX_getXBeePacket(uint8_t _index);
uint8_t TX_getLength(void);

uint8_t *TX_getSuperPACAddr(void);

boolean CheckUARTTXEvent(void);

inline void UARTTXIntResponse(void);

# 7 "ES_Port.c"
static unsigned char TickCount;

# 25
void ES_Sys_Timer_Init(void) {

# 29
TRISC0 = 0;
ANS4 = 0;
RC0 = 0;


TRISC5 = 0;
RC5 = 0;


{GIE = 0;};

T0CS = 0;
PSA = 0;
PS0 = 1;
PS1 = 1;
PS2 = 1;

TMR0 = 0;
T0IF = 0;
T0IE = 1;

{GIE = 1;};
}

void interrupt ISR(void) {
RC5 = 1;

if (SSPIF && SSPIE) {
SPIIntResponse();
}

if (RCIF && RCIE) {
UARTRXIntResponse();
}

# 69
if (T0IF) {
T0IF = 0;
TickCount++;
PORTC ^= 0x00000001;
}

RC5 = 0;
}

unsigned char IsTimerPending(void) {
if (TickCount > 0) {
TickCount--;
return (1);
} else
return (0);
}
